Storytelling: Lobbyists4America
…
## # Groups:   non_central_user_name_retweeted [9]
##    non_central_user_name_retweeted central_user_retweeting rel_cnt
##    <chr>                           <chr>                     <dbl>
##  1 Dwight Evans                    Governor Tom Wolf           402
##  2 Senator Bob Casey               Donald J. Trump             235
##  3 Ed Markey                       Donald J. Trump             228
##  4 Senator Angus King              Sen. Susan Collins          210
##  5 Mark Warner                     Senator Tim Kaine           183
##  6 Tom Udall                       President Trump             176
##  7 Elizabeth Warren                Donald J. Trump             174
##  8 (((Rep. Nadler)))               Donald J. Trump             170
##  9 Rep. Sam Graves                 Rep. Chris Collins          167
## 10 Dwight Evans                    President Trump             162

## # A tibble: 26 x 5
##      p.Value Chi.Squared central_user       noncentral_user community
##        <dbl>       <dbl> <chr>              <chr>           <fct>    
##  1 3.58e-321       1468. Rep. Steve Scalise MarshaBlackburn 1        
##  2 3.34e-316       1445. Rep. Steve Scalise cathymcmorris   1        
##  3 2.23e-315       1441. Rep. Steve Scalise RepKevinBrady   1        
##  4 2.23e-315       1441. Rep. Steve Scalise PatrickMcHenry  1        
##  5 1.26e-217        992. Rosa DeLauro       repsandylevin   2        
##  6 1.26e-217        992. Rosa DeLauro       RepBonamici     2        
##  7 8.89e-217        988. Rosa DeLauro       RepKarenBass    2        
##  8 8.89e-217        988. Rosa DeLauro       RepAdamSchiff   2        
##  9 8.89e-217        988. Rosa DeLauro       FrankPallone    2        
## 10 8.89e-217        988. Rosa DeLauro       RepTerriSewell  2        
## #  with 16 more rows
…
